[

{"title": "Heading Title", "id": 1, "description": "This is book", "publishDate": "2025-2026"},
{"title": "Title", "id": 2, "description": "This is book"},
{"title": "Tea", "id": 3, "description": "This is book"},
{"title": "Lite", "id": 4, "description": "This is book"}

]